module book

go 1.15

require (
	github.com/dgrijalva/jwt-go v3.2.0+incompatible // indirect
	github.com/tal-tech/go-zero v1.1.7
	google.golang.org/grpc v1.29.1 // indirect
	google.golang.org/protobuf v1.25.0 // indirect
)
